^C:\Users\Пашка Альфа-Банк\source\repos\HelloWorld\HelloWorld.vcxproj
C:\Users\Пашка Альфа-Банк\source\repos\HelloWorld\Release\HelloWorld.ipdb
C:\Users\Пашка Альфа-Банк\source\repos\HelloWorld\Release\HelloWorld.iobj
^C:\Users\Пашка Альфа-Банк\source\repos\HelloWorld\HelloWorld.vcxproj
C:\Users\Пашка Альфа-Банк\source\repos\HelloWorld\Release\HelloWorld.ipdb
C:\Users\Пашка Альфа-Банк\source\repos\HelloWorld\Release\HelloWorld.iobj
